…
We can also have a more functional approach using wrapper function.

``` r
library(tidyverse)
search_datasets("ACLED", rows = 2) %>% ## search dataset in HDX
  first() %>% ## select the first dataset
  get_resources() %>% ## get all resources in the datasets
  first() %>% ## select the first resource
  read_session() ## read it into R
## reading sheet:  Sheet1 
## # A tibble: 3,698 x 25
##     GWNO EVENT_ID_CNTY EVENT_ID_NO_CNTY EVENT_DATE         
##    <dbl> <chr>                    <dbl> <dttm>             
##  1  615. 1ALG                        1. 1997-01-04 00:00:00
##  2  615. 2ALG                        2. 1997-01-05 00:00:00
##  3  615. 3ALG                        3. 1997-01-06 00:00:00
##  4  615. 4ALG                        4. 1997-01-07 00:00:00
##  5  615. 5ALG                        5. 1997-01-11 00:00:00
##  6  615. 6ALG                        6. 1997-01-12 00:00:00
##  7  615. 7ALG                        7. 1997-01-17 00:00:00
##  8  615. 8ALG                        8. 1997-01-19 00:00:00
##  9  615. 9ALG                        9. 1997-01-21 00:00:00
## 10  615. 11ALG                      10. 1997-01-22 00:00:00
## # ... with 3,688 more rows, and 21 more variables: YEAR <dbl>,
## #   TIME_PRECISION <dbl>, EVENT_TYPE <chr>, ACTOR1 <chr>,
## #   ALLY_ACTOR_1 <chr>, INTER1 <dbl>, ACTOR2 <chr>,
## #   ALLY_ACTOR_2 <chr>, INTER2 <dbl>, INTERACTION <dbl>,
## #   COUNTRY <chr>, ADMIN1 <chr>, ADMIN2 <chr>, ADMIN3 <lgl>,
## #   LOCATION <chr>, LATITUDE <dbl>, LONGITUDE <dbl>,
## #   GEO_PRECISION <dbl>, SOURCE <chr>, NOTES <chr>,
## #   FATALITIES <dbl>
```
…
